<?xml version="1.0" encoding="utf-8"?>
<!-- Generator: Adobe Illustrator 22.0.1, SVG Export Plug-In . SVG Version: 6.00 Build 0)  -->
<svg version="1.1" id="Layer_1" xmlns="http://www.w3.org/2000/svg" xmlns:xlink="http://www.w3.org/1999/xlink" fill="#FFFFFF" x="0px" y="0px"
	 viewBox="0 0 30 30" style="enable-background:new 0 0 30 30;" xml:space="preserve">
<path d="M3.74,14.46c0,2.04,0.5,3.92,1.51,5.65s2.37,3.09,4.09,4.09s3.61,1.51,5.65,1.51c1.44-3.08,2.15-6.83,2.15-11.25
	c0-3.46-0.72-7.2-2.15-11.24c-1.52,0-2.98,0.3-4.37,0.89S8.03,5.5,7.03,6.5s-1.8,2.2-2.4,3.59S3.74,12.93,3.74,14.46z"/>
</svg>
